<?xml version="1.0" encoding="UTF-8" standalone="no"?>
<svg width="25px" height="24px" viewBox="0 0 25 24" version="1.1" xmlns="http://www.w3.org/2000/svg" xmlns:xlink="http://www.w3.org/1999/xlink">
    <!-- Generator: Sketch 3.6.1 (26313) - http://www.bohemiancoding.com/sketch -->
    <title>notifications</title>
    <desc>Created with Sketch.</desc>
    <defs></defs>
    <g id="Page-1" stroke="none" stroke-width="1" fill="none" fill-rule="evenodd">
        <g id="Artboard" transform="translate(-1508.000000, -754.000000)" fill="#F2EEE8">
            <g id="notifications" transform="translate(1508.000000, 754.000000)">
                <path d="M12.48,2.114 C7.04,2.114 2.61,6.544 2.61,11.989 C2.61,17.435 7.04,21.864 12.48,21.864 C17.93,21.864 22.36,17.435 22.36,11.989 C22.36,6.544 17.93,2.114 12.48,2.114 L12.48,2.114 Z M12.48,23.864 C5.93,23.864 0.61,18.537 0.61,11.989 C0.61,5.441 5.93,0.114 12.48,0.114 C19.03,0.114 24.36,5.441 24.36,11.989 C24.36,18.537 19.03,23.864 12.48,23.864 L12.48,23.864 Z" id="Fill-1066"></path>
                <path d="M12.48,1.614 C9.29,1.614 6.69,6.269 6.69,11.989 C6.69,17.71 9.29,22.364 12.48,22.364 C15.67,22.364 18.27,17.71 18.27,11.989 C18.27,6.269 15.67,1.614 12.48,1.614 L12.48,1.614 Z M12.48,23.364 C8.74,23.364 5.69,18.261 5.69,11.989 C5.69,5.717 8.74,0.614 12.48,0.614 C16.22,0.614 19.27,5.717 19.27,11.989 C19.27,18.261 16.22,23.364 12.48,23.364 L12.48,23.364 Z" id="Fill-1067"></path>
                <path d="M12.98,1.626 L12.98,22.353 C18.47,22.091 22.86,17.542 22.86,11.989 C22.86,6.436 18.47,1.888 12.98,1.626 L12.98,1.626 Z M12.48,23.364 C12.21,23.364 11.98,23.141 11.98,22.864 L11.98,1.114 C11.98,0.838 12.21,0.614 12.48,0.614 C18.75,0.614 23.86,5.717 23.86,11.989 C23.86,18.261 18.75,23.364 12.48,23.364 L12.48,23.364 Z" id="Fill-1068"></path>
                <path d="M2.67,15.322 L22.3,15.322 C22.67,14.235 22.86,13.116 22.86,11.989 C22.86,10.863 22.67,9.743 22.3,8.655 L2.67,8.655 C2.29,9.743 2.11,10.863 2.11,11.989 C2.11,13.114 2.29,14.234 2.67,15.322 L2.67,15.322 Z M22.65,16.322 L2.31,16.322 C2.11,16.322 1.92,16.193 1.85,15.999 C1.36,14.696 1.11,13.347 1.11,11.989 C1.11,10.63 1.36,9.281 1.85,7.979 C1.92,7.784 2.11,7.655 2.32,7.655 L22.65,7.655 C22.86,7.655 23.04,7.784 23.12,7.979 C23.61,9.281 23.86,10.63 23.86,11.989 C23.86,13.349 23.61,14.698 23.12,15.999 C23.04,16.193 22.86,16.322 22.65,16.322 L22.65,16.322 Z" id="Fill-1069"></path>
            </g>
        </g>
    </g>
</svg>