<?xml version="1.0" encoding="UTF-8" standalone="no"?>
<svg width="25px" height="25px" viewBox="0 0 25 25" version="1.1" xmlns="http://www.w3.org/2000/svg" xmlns:xlink="http://www.w3.org/1999/xlink">
    <!-- Generator: Sketch 3.6.1 (26313) - http://www.bohemiancoding.com/sketch -->
    <title>reports</title>
    <desc>Created with Sketch.</desc>
    <defs></defs>
    <g id="Page-1" stroke="none" stroke-width="1" fill="none" fill-rule="evenodd">
        <g id="Artboard" transform="translate(-406.000000, -1001.000000)" fill="#F2EEE8">
            <g id="reports" transform="translate(406.000000, 1001.000000)">
                <path d="M23.186,24.54 L1.352,24.54 C0.799,24.54 0.352,24.1 0.352,23.54 L0.352,1.71 C0.352,1.16 0.799,0.71 1.352,0.71 C1.904,0.71 2.352,1.16 2.352,1.71 L2.352,22.54 L23.186,22.54 C23.738,22.54 24.186,22.99 24.186,23.54 C24.186,24.1 23.738,24.54 23.186,24.54" id="Fill-2132"></path>
                <path d="M5.877,19.07 L7.719,19.07 L7.719,15.75 L5.877,15.75 L5.877,19.07 Z M8.643,20.92 L4.953,20.92 C4.443,20.92 4.031,20.5 4.031,19.99 L4.031,14.83 C4.031,14.32 4.443,13.9 4.953,13.9 L8.643,13.9 C9.152,13.9 9.564,14.32 9.564,14.83 L9.564,19.99 C9.564,20.5 9.152,20.92 8.643,20.92 L8.643,20.92 Z" id="Fill-2133"></path>
                <path d="M20.129,19.07 L21.973,19.07 L21.973,2.63 L20.129,2.63 L20.129,19.07 Z M22.895,20.92 L19.205,20.92 C18.695,20.92 18.283,20.5 18.283,19.99 L18.283,1.71 C18.283,1.2 18.695,0.79 19.205,0.79 L22.895,0.79 C23.404,0.79 23.818,1.2 23.818,1.71 L23.818,19.99 C23.818,20.5 23.404,20.92 22.895,20.92 L22.895,20.92 Z" id="Fill-2134"></path>
                <path d="M13.002,19.07 L14.846,19.07 L14.846,9.33 L13.002,9.33 L13.002,19.07 Z M15.768,20.92 L12.08,20.92 C11.57,20.92 11.156,20.5 11.156,19.99 L11.156,8.41 C11.156,7.9 11.57,7.49 12.08,7.49 L15.768,7.49 C16.277,7.49 16.691,7.9 16.691,8.41 L16.691,19.99 C16.691,20.5 16.277,20.92 15.768,20.92 L15.768,20.92 Z" id="Fill-2135"></path>
            </g>
        </g>
    </g>
</svg>