<svg xmlns="http://www.w3.org/2000/svg" xmlns:xlink="http://www.w3.org/1999/xlink" width="24px" height="24px" viewBox="0 0 24 24" version="1.1">
  <#comment/>
  <title>
    search
  </title>
  <desc>
    Created with Sketch.
  </desc>
  <defs/>
  <g id="Page-1" stroke="none" stroke-width="1" fill="none" fill-rule="evenodd">
    <g id="Artboard" transform="translate(-406.000000, -692.000000)" fill="#0D2240">
      <g id="search" transform="translate(406.000000, 692.000000)">
        <path d="M10.814 2.576C6.422 2.577 2.848 6.153 2.846 10.548 2.848 14.939 6.42 18.513 10.813 18.513 15.207 18.513 18.783 14.939 18.783 10.546 18.781 6.151 15.207 2.576 10.814 2.576L10.814 2.576ZM10.813 20.513C5.318 20.513 0.848 16.042 0.846 10.548 0.848 5.05 5.318 0.577 10.814 0.576 16.309 0.576 20.781 5.048 20.783 10.545 20.783 16.042 16.311 20.513 10.813 20.513L10.813 20.513Z" id="Fill-845"/>
        <path d="M5.207 10.543L4.207 10.543C4.209 6.9 7.172 3.937 10.814 3.937L10.814 4.937C7.723 4.937 5.209 7.452 5.207 10.543" id="Fill-846"/>
        <path d="M22.691 23.809C22.436 23.809 22.18 23.711 21.984 23.516L16.416 17.948C16.025 17.558 16.025 16.925 16.416 16.534 16.807 16.144 17.439 16.144 17.83 16.534L23.398 22.102C23.789 22.492 23.789 23.125 23.398 23.516 23.203 23.711 22.947 23.809 22.691 23.809" id="Fill-847"/>
      </g>
    </g>
  </g>
</svg>
